{
  "id": 1,
  "referenceNo": 126584,
  "price": 400,
  "lstEstimationItems": [
    {
      "no": 1234,
      "name": "7nfia",
      "quantity": 5,
      "unitPrice": 35.25,
      "margin": 20.5,
      "totalPrice": 180.568,
      "totalMarginPrice": 200
    },
    {
      "no": 12345,
      "name": "7nfia Italy",
      "quantity": 5,
      "unitPrice": 35.25,
      "margin": 20.5,
      "totalPrice": 180.568,
      "totalMarginPrice": 200
    }
  ]
}
